0000000000421dae <start_farm>:
  421dae:	b8 01 00 00 00       	mov    $0x1,%eax
  421db3:	c3                   	retq   

0000000000421db4 <getval_106>:
  421db4:	b8 48 89 c7 c3       	mov    $0xc3c78948,%eax
  421db9:	c3                   	retq   

0000000000421dba <addval_497>:
  421dba:	8d 87 58 90 90 c3    	lea    -0x3c6f6fa8(%rdi),%eax
  421dc0:	c3                   	retq   

0000000000421dc1 <addval_204>:
  421dc1:	8d 87 72 48 89 c7    	lea    -0x3876b78e(%rdi),%eax
  421dc7:	c3                   	retq   

0000000000421dc8 <getval_302>:
  421dc8:	b8 48 89 c7 c7       	mov    $0xc7c78948,%eax
  421dcd:	c3                   	retq   

0000000000421dce <setval_191>:
  421dce:	c7 07 70 24 58 91    	movl   $0x91582470,(%rdi)
  421dd4:	c3                   	retq   

0000000000421dd5 <getval_442>:
  421dd5:	b8 58 90 90 c3       	mov    $0xc3909058,%eax
  421dda:	c3                   	retq   

0000000000421ddb <getval_153>:
  421ddb:	b8 68 89 c7 90       	mov    $0x90c78968,%eax
  421de0:	c3                   	retq   

0000000000421de1 <addval_490>:
  421de1:	8d 87 58 94 90 90    	lea    -0x6f6f6ba8(%rdi),%eax
  421de7:	c3                   	retq   

0000000000421de8 <mid_farm>:
  421de8:	b8 01 00 00 00       	mov    $0x1,%eax
  421ded:	c3                   	retq   

0000000000421dee <add_xy>:
  421dee:	48 8d 04 37          	lea    (%rdi,%rsi,1),%rax
  421df2:	c3                   	retq   

0000000000421df3 <setval_266>:
  421df3:	c7 07 89 ca 28 c9    	movl   $0xc928ca89,(%rdi)
  421df9:	c3                   	retq   

0000000000421dfa <addval_413>:
  421dfa:	8d 87 89 c1 c2 8c    	lea    -0x733d3e77(%rdi),%eax
  421e00:	c3                   	retq   

0000000000421e01 <addval_296>:
  421e01:	8d 87 88 d6 84 c9    	lea    -0x367b2978(%rdi),%eax
  421e07:	c3                   	retq   

0000000000421e08 <addval_170>:
  421e08:	8d 87 89 c1 84 d2    	lea    -0x2d7b3e77(%rdi),%eax
  421e0e:	c3                   	retq   

0000000000421e0f <setval_185>:
  421e0f:	c7 07 48 89 e0 94    	movl   $0x94e08948,(%rdi)
  421e15:	c3                   	retq   

0000000000421e16 <addval_262>:
  421e16:	8d 87 89 ca 90 c1    	lea    -0x3e6f3577(%rdi),%eax
  421e1c:	c3                   	retq   

0000000000421e1d <setval_353>:
  421e1d:	c7 07 48 89 e0 c3    	movl   $0xc3e08948,(%rdi)
  421e23:	c3                   	retq   

0000000000421e24 <setval_263>:
  421e24:	c7 07 48 89 e0 94    	movl   $0x94e08948,(%rdi)
  421e2a:	c3                   	retq   

0000000000421e2b <setval_198>:
  421e2b:	c7 07 89 c1 91 c3    	movl   $0xc391c189,(%rdi)
  421e31:	c3                   	retq   

0000000000421e32 <addval_368>:
  421e32:	8d 87 89 d6 84 db    	lea    -0x247b2977(%rdi),%eax
  421e38:	c3                   	retq   

0000000000421e39 <addval_408>:
  421e39:	8d 87 7f 89 ca c3    	lea    -0x3c357681(%rdi),%eax
  421e3f:	c3                   	retq   

0000000000421e40 <getval_130>:
  421e40:	b8 89 c1 38 c0       	mov    $0xc038c189,%eax
  421e45:	c3                   	retq   

0000000000421e46 <getval_405>:
  421e46:	b8 c9 c1 90 90       	mov    $0x9090c1c9,%eax
  421e4b:	c3                   	retq   

0000000000421e4c <getval_288>:
  421e4c:	b8 48 89 e0 92       	mov    $0x92e08948,%eax
  421e51:	c3                   	retq   

0000000000421e52 <addval_337>:
  421e52:	8d 87 ad 8b d6 90    	lea    -0x6f297453(%rdi),%eax
  421e58:	c3                   	retq   

0000000000421e59 <getval_151>:
  421e59:	b8 89 ca a4 c0       	mov    $0xc0a4ca89,%eax
  421e5e:	c3                   	retq   

0000000000421e5f <addval_363>:
  421e5f:	8d 87 89 c1 94 c3    	lea    -0x3c6b3e77(%rdi),%eax
  421e65:	c3                   	retq   

0000000000421e66 <setval_148>:
  421e66:	c7 07 48 89 e0 c3    	movl   $0xc3e08948,(%rdi)
  421e6c:	c3                   	retq   

0000000000421e6d <addval_389>:
  421e6d:	8d 87 81 ca 20 db    	lea    -0x24df357f(%rdi),%eax
  421e73:	c3                   	retq   

0000000000421e74 <getval_377>:
  421e74:	b8 ec 89 c1 92       	mov    $0x92c189ec,%eax
  421e79:	c3                   	retq   

0000000000421e7a <setval_345>:
  421e7a:	c7 07 40 89 e0 c3    	movl   $0xc3e08940,(%rdi)
  421e80:	c3                   	retq   

0000000000421e81 <getval_217>:
  421e81:	b8 48 89 e0 c7       	mov    $0xc7e08948,%eax
  421e86:	c3                   	retq   

0000000000421e87 <addval_136>:
  421e87:	8d 87 43 81 d6 c3    	lea    -0x3c297ebd(%rdi),%eax
  421e8d:	c3                   	retq   

0000000000421e8e <setval_147>:
  421e8e:	c7 07 f8 c8 89 ca    	movl   $0xca89c8f8,(%rdi)
  421e94:	c3                   	retq   

0000000000421e95 <addval_206>:
  421e95:	8d 87 99 c1 08 c0    	lea    -0x3ff73e67(%rdi),%eax
  421e9b:	c3                   	retq   

0000000000421e9c <addval_210>:
  421e9c:	8d 87 c9 d6 84 c0    	lea    -0x3f7b2937(%rdi),%eax
  421ea2:	c3                   	retq   

0000000000421ea3 <getval_284>:
  421ea3:	b8 2a 13 09 ca       	mov    $0xca09132a,%eax
  421ea8:	c3                   	retq   

0000000000421ea9 <getval_253>:
  421ea9:	b8 89 d6 90 c3       	mov    $0xc390d689,%eax
  421eae:	c3                   	retq   

0000000000421eaf <addval_424>:
  421eaf:	8d 87 08 89 e0 90    	lea    -0x6f1f76f8(%rdi),%eax
  421eb5:	c3                   	retq   

0000000000421eb6 <getval_109>:
  421eb6:	b8 73 86 8d d6       	mov    $0xd68d8673,%eax
  421ebb:	c3                   	retq   

0000000000421ebc <getval_146>:
  421ebc:	b8 81 d6 38 c9       	mov    $0xc938d681,%eax
  421ec1:	c3                   	retq   

0000000000421ec2 <setval_265>:
  421ec2:	c7 07 09 ca 38 d2    	movl   $0xd238ca09,(%rdi)
  421ec8:	c3                   	retq   

0000000000421ec9 <end_farm>:
  421ec9:	b8 01 00 00 00       	mov    $0x1,%eax
  421ece:	c3                   	retq   
  421ecf:	90                   	nop
